c:\Users\bestrada\Documents\DEMO\demo-back\src\main\java\com\demo01Back\controllers\ParParametroController.java
c:\Users\bestrada\Documents\DEMO\demo-back\src\main\java\com\demo01Back\configuration\CustomizationBean.java
c:\Users\bestrada\Documents\DEMO\demo-back\src\main\java\com\demo01Back\dao\ParParametroDao.java
c:\Users\bestrada\Documents\DEMO\demo-back\src\main\java\com\demo01Back\ServletInitializer.java
c:\Users\bestrada\Documents\DEMO\demo-back\src\main\java\com\demo01Back\configuration\OracleConfiguration.java
c:\Users\bestrada\Documents\DEMO\demo-back\src\main\java\com\demo01Back\dao\impl\ParParametroDaoImpl.java
c:\Users\bestrada\Documents\DEMO\demo-back\src\main\java\com\demo01Back\model\ParParametro.java
c:\Users\bestrada\Documents\DEMO\demo-back\src\main\java\com\demo01Back\service\impl\ParParametroServiceImpl.java
c:\Users\bestrada\Documents\DEMO\demo-back\src\main\java\com\demo01Back\configuration\RestConfiguration.java
c:\Users\bestrada\Documents\DEMO\demo-back\src\main\java\com\demo01Back\InventarioBackendApplication.java
c:\Users\bestrada\Documents\DEMO\demo-back\src\main\java\com\demo01Back\service\ParParametroService.java
